{"page":1,"total_results":10000,"total_pages":500,"results":[{"popularity":146.771,"vote_count":2923,"video":false,"poster_path":"\/mb7wQv0adK3kjOUr9n93mANHhPJ.jpg","id":583083,"adult":false,"backdrop_path":"\/wO5QSWZPBT71gMLvrRex0bVc0V9.jpg","original_language":"en","original_title":"The Kissing Booth 2","genre_ids":[35,10749],"title":"The Kissing Booth 2","vote_average":8.2,"overview":"With college decisions looming, Elle juggles her long-distance romance with Noah, changing relationship with bestie Lee and feelings for a new classmate.","release_date":"2020-07-24"},{"popularity":118.046,"vote_count":134,"video":false,"poster_path":"\/bKthjUmxjHjvJK8FktFfQdmwP12.jpg","id":703745,"adult":false,"backdrop_path":"\/hIHtyIYgBqHybOgUdoAmveipuiO.jpg","original_language":"en","original_title":"Deep Blue Sea 3","genre_ids":[28,27,878],"title":"Deep Blue Sea 3","vote_average":6.7,"overview":"Dr. Emma Collins and her team are spending their third summer on the island of Little Happy studying the effect of climate change on the great white sharks who come to the nearby nursery every year to give birth. Along with the last two inhabitants of this former fishing village, their peaceful life is disrupted when a \"scientific\" team led by her ex-boyfriend and marine biologist Richard show up looking for three bull sharks who we soon learn aren't just any bull sharks.","release_date":"2020-07-28"},{"popularity":116.873,"vote_count":46,"video":false,"poster_path":"\/vFIHbiy55smzi50RmF8LQjmpGcx.jpg","id":703771,"adult":false,"backdrop_path":"\/owraiceOKtSOa3t8sp3wA9K2Ox6.jpg","original_language":"en","original_title":"Deathstroke: Knights & Dragons - The Movie","genre_ids":[28,16],"title":"Deathstroke: Knights & Dragons - The Movie","vote_average":7.6,"overview":"Ten years ago, Slade Wilson-aka the super-assassin called Deathstroke-made a tragic mistake and his wife and son paid a terrible price. Now, a decade later, Wilson's family is threatened once again by the murderous Jackal and the terrorists of H.IV.E. Can Deathstroke atone for the sins of the past-or will his family pay the ultimate price?","release_date":"2020-08-04"},{"popularity":151.357,"vote_count":157,"video":false,"poster_path":"\/b5XfICAvUe8beWExBz97i0Qw4Qh.jpg","id":612706,"adult":false,"backdrop_path":"\/ishzDCZIv9iWfI70nv5E4ZreYUD.jpg","original_language":"en","original_title":"Work It","genre_ids":[35,10402],"title":"Work It","vote_average":8,"overview":"A brilliant but clumsy high school senior vows to get into her late father's alma mater by transforming herself and a misfit squad into dance champions.","release_date":"2020-08-07"},{"popularity":106.229,"vote_count":831,"video":false,"poster_path":"\/kjMbDciooTbJPofVXgAoFjfX8Of.jpg","id":516486,"adult":false,"backdrop_path":"\/xXBnM6uSTk6qqCf0SRZKXcga9Ba.jpg","original_language":"en","original_title":"Greyhound","genre_ids":[28,18,10752],"title":"Greyhound","vote_average":7.5,"overview":"A first-time captain leads a convoy of allied ships carrying thousands of soldiers across the treacherous waters of the “Black Pit” to the front lines of WW2. With no air cover protection for 5 days, the captain and his convoy must battle the surrounding enemy Nazi U-boats in order to give the allies a chance to win the war.","release_date":"2020-06-19"},{"popularity":95.779,"vote_count":362,"video":false,"poster_path":"\/jHo2M1OiH9Re33jYtUQdfzPeUkx.jpg","id":385103,"adult":false,"backdrop_path":"\/fKtYXUhX5fxMxzQfyUcQW9Shik6.jpg","original_language":"en","original_title":"Scoob!","genre_ids":[12,16,35,10751],"title":"Scoob!","vote_average":7.6,"overview":"In Scooby-Doo’s greatest adventure yet, see the never-before told story of how lifelong friends Scooby and Shaggy first met and how they joined forces with young detectives Fred, Velma, and Daphne to form the famous Mystery Inc. Now, with hundreds of cases solved, Scooby and the gang face their biggest, toughest mystery ever: an evil plot to unleash the ghost dog Cerberus upon the world. As they race to stop this global “dogpocalypse,” the gang discovers that Scooby has a secret legacy and an epic destiny greater than anyone ever imagined.","release_date":"2020-07-08"},{"popularity":101.569,"vote_count":28,"video":false,"poster_path":"\/8ziUp2q71vCmMgYY2MRCwI3mSs5.jpg","id":628917,"adult":false,"backdrop_path":"\/bkJA4J6sddIKwKSi0qepTiDdwvt.jpg","original_language":"en","original_title":"An American Pickle","genre_ids":[35],"title":"An American Pickle","vote_average":5.9,"overview":"An immigrant worker at a pickle factory is accidentally preserved for 100 years and wakes up in modern day Brooklyn. He learns his only surviving relative is his great grandson, a computer coder who he can’t connect with.","release_date":"2020-08-06"},{"popularity":96.005,"vote_count":14191,"video":false,"poster_path":"\/udDclJoHjfjb8Ekgsd4FDteOkCU.jpg","id":475557,"adult":false,"backdrop_path":"\/n6bUvigpRFqSwmPp1m2YADdbRBc.jpg","original_language":"en","original_title":"Joker","genre_ids":[80,18,53],"title":"Joker","vote_average":8.2,"overview":"During the 1980s, a failed stand-up comedian is driven insane and turns to a life of crime and chaos in Gotham City while becoming an infamous psychopathic crime figure.","release_date":"2019-10-02"},{"popularity":77.129,"vote_count":141,"video":false,"poster_path":"\/ijJm0RSeKIr67qkHLtSmtigS6ra.jpg","id":430155,"adult":false,"backdrop_path":"\/8HbqSozBJxv6UldR9lMUECUlbLI.jpg","original_language":"ru","original_title":"Кома","genre_ids":[28,14,878],"title":"Coma","vote_average":6,"overview":"A young and talented architect comes to his senses after a horrific accident only to find himself in the odd dystopian world. A world that is filled with the memories of all current coma patients. Just like a human memory this world is fragmental, chaotic and unstable. This is COMA: icecaps, rivers and cities can all exist in a space of a single room and laws of physics are no longer laws as they can be bent.","release_date":"2019-11-19"},{"popularity":77.797,"vote_count":26722,"video":false,"poster_path":"\/9gk7adHYeDvHkCSEqAvQNLV5Uge.jpg","id":27205,"adult":false,"backdrop_path":"\/s3TBrRGB1iav7gFOCNx3H31MoES.jpg","original_language":"en","original_title":"Inception","genre_ids":[28,12,878],"title":"Inception","vote_average":8.3,"overview":"Cobb, a skilled thief who commits corporate espionage by infiltrating the subconscious of his targets is offered a chance to regain his old life as payment for a task considered to be impossible: \"inception\", the implantation of another person's idea into a target's subconscious.","release_date":"2010-07-15"},{"popularity":77.846,"vote_count":261,"video":false,"poster_path":"\/hPkqY2EMqWUnFEoedukilIUieVG.jpg","id":531876,"adult":false,"backdrop_path":"\/n1RohH2VoK1CdVI2fXvcP19dSlm.jpg","original_language":"en","original_title":"The Outpost","genre_ids":[28,18,36,10752],"title":"The Outpost","vote_average":6.6,"overview":"A small unit of U.S. soldiers, alone at the remote Combat Outpost Keating, located deep in the valley of three mountains in Afghanistan, battles to defend against an overwhelming force of Taliban fighters in a coordinated attack. The Battle of Kamdesh, as it was known, was the bloodiest American engagement of the Afghan War in 2009 and Bravo Troop 3-61 CAV became one of the most decorated units of the 19-year conflict.","release_date":"2020-06-24"},{"popularity":67.944,"vote_count":5361,"video":false,"poster_path":"\/h4VB6m0RwcicVEZvzftYZyKXs6K.jpg","id":495764,"adult":false,"backdrop_path":"\/9xNOiv6DZZjH7ABoUUDP0ZynouU.jpg","original_language":"en","original_title":"Birds of Prey (and the Fantabulous Emancipation of One Harley Quinn)","genre_ids":[28,35,80],"title":"Birds of Prey (and the Fantabulous Emancipation of One Harley Quinn)","vote_average":7.2,"overview":"Harley Quinn joins forces with a singer, an assassin and a police detective to help a young girl who had a hit placed on her after she stole a rare diamond from a crime lord.","release_date":"2020-02-05"},{"popularity":63.105,"vote_count":8699,"video":false,"poster_path":"\/7IiTTgloJzvGI1TAYymCfbfl3vT.jpg","id":496243,"adult":false,"backdrop_path":"\/ApiBzeaa95TNYliSbQ8pJv4Fje7.jpg","original_language":"ko","original_title":"기생충","genre_ids":[35,18,53],"title":"Parasite","vote_average":8.5,"overview":"All unemployed, Ki-taek's family takes peculiar interest in the wealthy and glamorous Parks for their livelihood until they get entangled in an unexpected incident.","release_date":"2019-05-30"},{"popularity":85.289,"vote_count":4047,"video":false,"poster_path":"\/xBHvZcjRiWyobQ9kxBhO6B2dtRI.jpg","id":419704,"adult":false,"backdrop_path":"\/cs6z1byqL0ffw1948FJI2Jr1HVT.jpg","original_language":"en","original_title":"Ad Astra","genre_ids":[18,878],"title":"Ad Astra","vote_average":6.1,"overview":"The near future, a time when both hope and hardships drive humanity to look to the stars and beyond. While a mysterious phenomenon menaces to destroy life on planet Earth, astronaut Roy McBride undertakes a mission across the immensity of space and its many perils to uncover the truth about a lost expedition that decades before boldly faced emptiness and silence in search of the unknown.","release_date":"2019-09-17"},{"popularity":80.364,"vote_count":1581,"video":false,"poster_path":"\/cjr4NWURcVN3gW5FlHeabgBHLrY.jpg","id":547016,"adult":false,"backdrop_path":"\/m0ObOaJBerZ3Unc74l471ar8Iiy.jpg","original_language":"en","original_title":"The Old Guard","genre_ids":[28,14],"title":"The Old Guard","vote_average":7.4,"overview":"Four undying warriors who've secretly protected humanity for centuries become targeted for their mysterious powers just as they discover a new immortal.","release_date":"2020-07-10"},{"popularity":69.082,"vote_count":3,"video":false,"poster_path":"\/dKjD3DTZjRI3Ipkf7Oz5zAILnwD.jpg","id":659991,"adult":false,"backdrop_path":"\/5nRyaVklxyA9OkxqZaPv1KBRqpd.jpg","original_language":"en","original_title":"Made in Italy","genre_ids":[35,18],"title":"Made in Italy","vote_average":6.3,"overview":"A bohemian artist travels from London to Italy with his estranged son to sell the house they inherited from his late wife.","release_date":"2020-08-06"},{"popularity":73.649,"vote_count":5400,"video":false,"poster_path":"\/db32LaOibwEliAmSL2jjDF6oDdj.jpg","id":181812,"adult":false,"backdrop_path":"\/SPkEiZGxq5aHWQ2Zw7AITwSEo2.jpg","original_language":"en","original_title":"Star Wars: The Rise of Skywalker","genre_ids":[28,12,878],"title":"Star Wars: The Rise of Skywalker","vote_average":6.6,"overview":"The surviving Resistance faces the First Order once again as the journey of Rey, Finn and Poe Dameron continues. With the power and knowledge of generations behind them, the final battle begins.","release_date":"2019-12-18"},{"popularity":62.969,"vote_count":24,"video":false,"poster_path":"\/7B1gSxMdgZCCJcMRgo65T5lByMw.jpg","id":695596,"adult":false,"backdrop_path":"\/zFjL6CurOHiWb4Am4nzVHul28KH.jpg","original_language":"en","original_title":"Malibu Rescue: The Next Wave","genre_ids":[28,35],"title":"Malibu Rescue: The Next Wave","vote_average":7,"overview":"It’s summer again, and everyone’s favorite Junior Rescuers, The Flounders, are back at Tower 2. With the International Junior Rescue Championships headed to Southern California, the eyes of the entire planet are on Malibu Beach. But when Team USA falls victim to a bout of food poisoning, it’s up to Tyler, Dylan, Eric, Lizzie and Gina to represent their country in the world's most extreme lifeguard challenge!","release_date":"2020-08-04"},{"popularity":93.236,"vote_count":19,"video":false,"poster_path":"\/3eg0kGC2Xh0vhydJHO37Sp4cmMt.jpg","id":531499,"adult":false,"backdrop_path":"\/zogWnCSztU8xvabaepQnAwsOtOt.jpg","original_language":"en","original_title":"The Tax Collector","genre_ids":[28,80,18,53],"title":"The Tax Collector","vote_average":5.6,"overview":"David Cuevas is a family man who works as a gangland tax collector for high ranking Los Angeles gang members. He makes collections across the city with his partner Creeper making sure people pay up or will see retaliation. An old threat returns to Los Angeles that puts everything David loves in harm’s way.","release_date":"2020-08-07"},{"popularity":57.323,"vote_count":23289,"video":false,"poster_path":"\/gEU2QniE6E77NI6lCU6MxlNBvIx.jpg","id":157336,"adult":false,"backdrop_path":"\/xJHokMbljvjADYdit5fK5VQsXEG.jpg","original_language":"en","original_title":"Interstellar","genre_ids":[12,18,878],"title":"Interstellar","vote_average":8.3,"overview":"The adventures of a group of explorers who make use of a newly discovered wormhole to surpass the limitations on human space travel and conquer the vast distances involved in an interstellar voyage.","release_date":"2014-11-05"}]}